[
  "aardvark",
  "addax",
  "albatross",
  "alligator",
  "alpaca",
  "anaconda",
  "angelfish",
  "anteater",
  "antelope",
  "ant",
  "ape",
  "armadillo",
  "baboon",
  "badger",
  "barracuda",
  "bat",
  "batfish",
  "bear",
  "beaver",
  "bee",
  "beetle",
  "bird",
  "bison",
  "boar",
  "booby",
  "buffalo",
  "bug",
  "butterfly",
  "buzzard",
  "caiman",
  "camel",
  "capuchin",
  "capybara",
  "caracal",
  "cardinal",
  "caribou",
  "cassowary",
  "cat",
  "caterpillar",
  "centipede",
  "chamois",
  "cheetah",
  "chicken",
  "chimpanzee",
  "chinchilla",
  "chipmunk",
  "cicada",
  "civet",
  "cobra",
  "cockroach",
  "cod",
  "constrictor",
  "copperhead",
  "cormorant",
  "corncrake",
  "cottonmouth",
  "cowfish",
  "cow",
  "coyote",
  "crab",
  "crane",
  "crayfish",
  "crocodile",
  "crossbill",
  "curlew",
  "deer",
  "dingo",
  "dog",
  "dogfish",
  "dolphin",
  "donkey",
  "dormouse",
  "dotterel",
  "dove",
  "dragonfly",
  "duck",
  "dugong",
  "dunlin",
  "eagle",
  "earthworm",
  "echidna",
  "eel",
  "eland",
  "elephant",
  "elk",
  "emu",
  "falcon",
  "ferret",
  "finch",
  "fish",
  "flamingo",
  "flatworm",
  "fly",
  "fowl",
  "fox",
  "frog",
  "gannet",
  "gaur",
  "gazelle",
  "gecko",
  "gemsbok",
  "gentoo",
  "gerbil",
  "gerenuk",
  "gharial",
  "gibbon",
  "giraffe",
  "gnat",
  "gnu",
  "goat",
  "goldfinch",
  "goosander",
  "goose",
  "gorilla",
  "goshawk",
  "grasshopper",
  "grebe",
  "grivet",
  "grouse",
  "guanaco",
  "gull",
  "hamerkop",
  "hamster",
  "hare",
  "hawk",
  "hedgehog",
  "heron",
  "herring",
  "hippopotamus",
  "hoopoe",
  "hornet",
  "horse",
  "hummingbird",
  "hyena",
  "ibex",
  "ibis",
  "iguana",
  "impala",
  "jackal",
  "jaguar",
  "jay",
  "jellyfish",
  "kangaroo",
  "katipo",
  "kea",
  "kestrel",
  "kingfisher",
  "kinkajou",
  "kitten",
  "koala",
  "kookaburra",
  "kouprey",
  "kudu",
  "ladybird",
  "lapwing",
  "lark",
  "lemur",
  "leopard",
  "lion",
  "lizard",
  "llama",
  "lobster",
  "locust",
  "loris",
  "louse",
  "lynx",
  "lyrebird",
  "macaque",
  "macaw",
  "magpie",
  "mallard",
  "mamba",
  "manatee",
  "mandrill",
  "mantis",
  "manx",
  "markhor",
  "marten",
  "meerkat",
  "millipede",
  "mink",
  "mockingbird",
  "mole",
  "mongoose",
  "monkey",
  "moose",
  "mosquito",
  "moth",
  "mouse",
  "narwhal",
  "newt",
  "nightingale",
  "ocelot",
  "octopus",
  "okapi",
  "opossum",
  "orangutan",
  "oryx",
  "osprey",
  "ostrich",
  "otter",
  "owl",
  "ox",
  "oyster",
  "oystercatcher",
  "panda",
  "panther",
  "parrot",
  "partridge",
  "peacock",
  "peafowl",
  "peccary",
  "pelican",
  "penguin",
  "petrel",
  "pheasant",
  "pig",
  "pigeon",
  "pintail",
  "piranha",
  "platypus",
  "plover",
  "polecat",
  "pollan",
  "pony",
  "porcupine",
  "porpoise",
  "puffin",
  "puma",
  "pygmy",
  "quagga",
  "quail",
  "quelea",
  "quetzal",
  "quoll",
  "rabbit",
  "raccoon",
  "rat",
  "ratel",
  "rattlesnake",
  "raven",
  "ray",
  "reindeer",
  "rhinoceros",
  "rook",
  "sable",
  "salamander",
  "salmon",
  "sandpiper",
  "sardine",
  "scarab",
  "seahorse",
  "seal",
  "serval",
  "shark",
  "sheep",
  "shrew",
  "shrike",
  "skimmer",
  "skipper",
  "skunk",
  "skylark",
  "sloth",
  "snail",
  "snake",
  "spider",
  "squirrel",
  "stag",
  "starling",
  "stoat",
  "stork",
  "swan",
  "swiftlet",
  "tamarin",
  "tapir",
  "tarantula",
  "tarsier",
  "teira",
  "termite",
  "tern",
  "thrush",
  "tiger",
  "toad",
  "tortoise",
  "toucan",
  "trout",
  "tuatara",
  "turkey",
  "turtle",
  "unicorn",
  "vendace",
  "vole",
  "vulture",
  "wallaby",
  "walrus",
  "warbler",
  "wasp",
  "weasel",
  "weevil",
  "whale",
  "wildebeest",
  "willet",
  "wolf",
  "wolverine",
  "wombat",
  "worm",
  "wren",
  "wryneck",
  "xenomorph",
  "yacare",
  "yak",
  "zebra",
  "Aboleth",
  "Acolyte",
  "AdultBlackDragon",
  "AdultBlueDracolich",
  "AdultBlueDragon",
  "AdultBrassDragon",
  "AdultBronzeDragon",
  "AdultCopperDragon",
  "AdultGoldDragon",
  "AdultGreenDragon",
  "AdultRedDragon",
  "AdultSilverDragon",
  "AdultWhiteDragon",
  "AirElemental",
  "AncientBlackDragon",
  "AncientBlueDragon",
  "AncientBrassDragon",
  "AncientBronzeDragon",
  "AncientCopperDragon",
  "AncientGoldDragon",
  "AncientGreenDragon",
  "AncientRedDragon",
  "AncientSilverDragon",
  "AncientWhiteDragon",
  "Androsphinx",
  "AnimatedArmor",
  "Ankheg",
  "Ape",
  "Archmage",
  "Assassin",
  "AwakenedShrub",
  "AwakenedTree",
  "AxeBeak",
  "Azer",
  "Baboon",
  "Badger",
  "Balor",
  "Bandit",
  "BanditCaptain",
  "BarbedDevil",
  "Basilisk",
  "Bat",
  "BeardedDevil",
  "Behir",
  "Berserker",
  "BlackBear",
  "BlackDragonWyrmling",
  "BlackPudding",
  "BlinkDog",
  "BloodHawk",
  "BlueDragonWyrmling",
  "Boar",
  "BoneDevil",
  "BrassDragonWyrmling",
  "BronzeDragonWyrmling",
  "BrownBear",
  "Bugbear",
  "Bulette",
  "Camel",
  "CarrionCrawler",
  "Cat",
  "CaveBear",
  "Centaur",
  "ChainDevil",
  "Chimera",
  "Chuul",
  "ClayGolem",
  "Cloaker",
  "CloudGiant",
  "Cockatrice",
  "Commoner",
  "ConstrictorSnake",
  "CopperDragonWyrmling",
  "Couatl",
  "Crab",
  "Crocodile",
  "CultFanatic",
  "Cultist",
  "Darkmantle",
  "DeathDog",
  "DeepGnome(Svirfneblin)",
  "Deer",
  "Deva",
  "DireWolf",
  "Djinni",
  "Doppelganger",
  "DraftHorse",
  "DragonTurtle",
  "Dretch",
  "Drider",
  "Drow",
  "Druid",
  "Dryad",
  "Duergar",
  "DustMephit",
  "Eagle",
  "EarthElemental",
  "Efreeti",
  "Elephant",
  "Elk",
  "Erinyes",
  "Ettercap",
  "Ettin",
  "FireElemental",
  "FireGiant",
  "FleshGolem",
  "FlyingSnake",
  "FlyingSword",
  "Frog",
  "FrostGiant",
  "Gargoyle",
  "GelatinousCube",
  "Ghast",
  "Ghost",
  "Ghoul",
  "GiantApe",
  "GiantBadger",
  "GiantBat",
  "GiantBoar",
  "GiantCentipede",
  "GiantConstrictorSnake",
  "GiantCrab",
  "GiantCrocodile",
  "GiantEagle",
  "GiantElk",
  "GiantFireBeetle",
  "GiantFrog",
  "GiantGoat",
  "GiantHyena",
  "GiantLizard",
  "GiantOctopus",
  "GiantOwl",
  "GiantPoisonousSnake",
  "GiantRat",
  "GiantRat(Diseased)",
  "GiantScorpion",
  "GiantSeaHorse",
  "GiantShark",
  "GiantSpider",
  "GiantToad",
  "GiantVulture",
  "GiantWasp",
  "GiantWeasel",
  "GiantWolfSpider",
  "GibberingMouther",
  "Glabrezu",
  "Gladiator",
  "Gnoll",
  "Goat",
  "Goblin",
  "GoldDragonWyrmling",
  "Gorgon",
  "GrayOoze",
  "GreenDragonWyrmling",
  "GreenHag",
  "Grick",
  "Griffon",
  "Grimlock",
  "Guard",
  "GuardianNaga",
  "Gynosphinx",
  "Half-RedDragonVeteran",
  "Harpy",
  "Hawk",
  "HellHound",
  "Hezrou",
  "HillGiant",
  "Hippogriff",
  "Hobgoblin",
  "Homunculus",
  "HornedDevil",
  "HunterShark",
  "Hydra",
  "Hyena",
  "IceDevil",
  "IceMephit",
  "Imp",
  "InvisibleStalker",
  "IronGolem",
  "Jackal",
  "KillerWhale",
  "Knight",
  "Kobold",
  "Kraken",
  "Lamia",
  "Lemure",
  "Lich",
  "Lion",
  "Lizard",
  "Lizardfolk",
  "Mage",
  "MagmaMephit",
  "Magmin",
  "Mammoth",
  "Manticore",
  "Marilith",
  "Mastiff",
  "Medusa",
  "Merfolk",
  "Merrow",
  "Mimic",
  "Minotaur",
  "MinotaurSkeleton",
  "Mule",
  "Mummy",
  "MummyLord",
  "Nalfeshnee",
  "NightHag",
  "Nightmare",
  "Noble",
  "OchreJelly",
  "Octopus",
  "Ogre",
  "OgreZombie",
  "Oni",
  "Orc",
  "Otyugh",
  "Owl",
  "Owlbear",
  "Panther",
  "Pegasus",
  "PhaseSpider",
  "PitFiend",
  "Planetar",
  "Plesiosaurus",
  "PoisonousSnake",
  "PolarBear",
  "Pony",
  "Priest",
  "Pseudodragon",
  "PurpleWorm",
  "Quasit",
  "Quipper",
  "Rakshasa",
  "Rat",
  "Raven",
  "RedDragonWyrmling",
  "ReefShark",
  "Remorhaz",
  "Rhinoceros",
  "RidingHorse",
  "Roc",
  "Roper",
  "RugofSmothering",
  "RustMonster",
  "Saber-ToothedTiger",
  "Sahuagin",
  "Salamander",
  "Satyr",
  "Scorpion",
  "Scout",
  "SeaHag",
  "SeaHorse",
  "Shadow",
  "ShamblingMound",
  "ShieldGuardian",
  "Shrieker",
  "SilverDragonWyrmling",
  "Skeleton",
  "Solar",
  "Specter",
  "Spider",
  "SpiritNaga",
  "Sprite",
  "Spy",
  "SteamMephit",
  "Stirge",
  "StoneGiant",
  "StoneGolem",
  "StormGiant",
  "Succubus/Incubus",
  "SwarmofBats",
  "SwarmofBeetles",
  "SwarmofCentipedes",
  "SwarmofInsects",
  "SwarmofPoisonousSnakes",
  "SwarmofQuippers",
  "SwarmofRats",
  "SwarmofRavens",
  "SwarmofSpiders",
  "SwarmofWasps",
  "Tarrasque",
  "Thug",
  "Tiger",
  "Treant",
  "TribalWarrior",
  "Triceratops",
  "Troll",
  "TyrannosaurusRex",
  "Unicorn",
  "Vampire",
  "VampireSpawn",
  "Veteran",
  "VioletFungus",
  "Vrock",
  "Vulture",
  "Warhorse",
  "WarhorseSkeleton",
  "WaterElemental",
  "Weasel",
  "Werebear",
  "Wereboar",
  "Wererat",
  "Weretiger",
  "Werewolf",
  "WhiteDragonWyrmling",
  "Wight",
  "Will-o'-Wisp",
  "WinterWolf",
  "Wolf",
  "Worg",
  "Wraith",
  "Wyvern",
  "Xorn",
  "YoungBlackDragon",
  "YoungBlueDragon",
  "YoungBrassDragon",
  "YoungBronzeDragon",
  "YoungCopperDragon",
  "YoungGoldDragon",
  "YoungGreenDragon",
  "YoungRedDragon",
  "YoungSilverDragon",
  "YoungWhiteDragon",
  "Zombie"
]